{
  "info": {
    "author": "",
    "author_email": "Stefan Hagen <stefan@hagen.link>",
    "bugtrack_url": null,
    "classifiers": [
      "Development Status :: 3 - Alpha",
      "Intended Audience :: Developers",
      "License :: OSI Approved :: Mozilla Public License 2.0 (MPL 2.0)",
      "Programming Language :: Python :: 3.10",
      "Programming Language :: Python :: 3.11",
      "Programming Language :: Python :: 3.12",
      "Programming Language :: Python :: 3.9"
    ],
    "description": "# Etiketti\n\nLabel (Finnish: etiketti) some files.\n\n[![License](https://git.sr.ht/~sthagen/etiketti/blob/default/docs/badges/license-spdx-mpl-2-0-neutral.svg)](https://git.sr.ht/~sthagen/etiketti/tree/default/item/LICENSE)\n[![Country of Origin](https://git.sr.ht/~sthagen/etiketti/blob/default/docs/badges/country-of-origin-name-switzerland-neutral.svg)](https://git.sr.ht/~sthagen/etiketti/tree/default/item/COUNTRY-OF-ORIGIN)\n[![Export Classification Control Number (ECCN)](https://git.sr.ht/~sthagen/etiketti/blob/default/docs/badges/export-control-classification-number_eccn-ear99-neutral.svg)](https://git.sr.ht/~sthagen/etiketti/tree/default/item/EXPORT-CONTROL-CLASSIFICATION-NUMBER)\n[![Configuration](https://git.sr.ht/~sthagen/etiketti/blob/default/docs/badges/configuration-sbom.svg)](https://git.sr.ht/~sthagen/etiketti/tree/default/item/docs/third-party/README.md)\n\n[![Version](https://git.sr.ht/~sthagen/etiketti/blob/default/docs/badges/latest-release.svg)](https://pypi.python.org/pypi/etiketti/)\n[![Downloads](https://git.sr.ht/~sthagen/etiketti/blob/default/docs/badges/downloads-per-month.svg)](https://pepy.tech/project/etiketti)\n[![Python](https://git.sr.ht/~sthagen/etiketti/blob/default/docs/badges/python-versions.svg)](https://pypi.python.org/pypi/etiketti/)\n[![Maintenance Status](https://git.sr.ht/~sthagen/etiketti/blob/default/docs/badges/commits-per-year.svg)](https://git.sr.ht/~sthagen/etiketti/log)\n\n## Documentation\n\nUser and developer [documentation of etiketti](https://codes.dilettant.life/docs/etiketti).\n\n## Bug Tracker\n\nAny feature requests or bug reports shall go to the [todos of etiketti](https://todo.sr.ht/~sthagen/etiketti).\n\n## Primary Source repository\n\nThe main source of `etiketti` is on a mountain in central Switzerland.\nWe use distributed version control (git).\nThere is no central hub.\nEvery clone can become a new source for the benefit of all.\nThe preferred public clone of `etiketti` is:\n\n* [at sourcehut](https://git.sr.ht/~sthagen/etiketti) - a collection of tools useful for software development.\n\n## Contributions\n\nPlease do not submit \"pull requests\" (I found no way to disable that \"feature\" on GitHub).\nIf you like to share small changes under the repositories license please kindly do so by sending a patchset.\nYou can either send such a patchset per email using [git send-email](https://git-send-email.io) or \nif you are a sourcehut user by selecting \"Prepare a patchset\" on the summary page of your fork at [sourcehut](https://git.sr.ht/).\n\n## Support\n\nPlease kindly submit issues at https://todo.sr.ht/~sthagen/etiketti or write plain text email to ~sthagen/etiketti@lists.sr.ht to submit patches and request support. Thanks.\n\n## Status\n\nPrototype.\n\n**Note**: The default branch is `default`.\n",
    "description_content_type": "text/markdown",
    "docs_url": null,
    "download_url": "",
    "downloads": {
      "last_day": -1,
      "last_month": -1,
      "last_week": -1
    },
    "dynamic": null,
    "home_page": "",
    "keywords": "developer-tools,devops",
    "license": "",
    "license_expression": null,
    "license_files": null,
    "maintainer": "",
    "maintainer_email": "Stefan Hagen <stefan@hagen.link>",
    "name": "etiketti",
    "package_url": "https://pypi.org/project/etiketti/",
    "platform": null,
    "project_url": "https://pypi.org/project/etiketti/",
    "project_urls": {
      "Bug-Tracker": "https://todo.sr.ht/~sthagen/etiketti",
      "Documentation": "https://codes.dilettant.life/docs/etiketti",
      "Homepage": "https://git.sr.ht/~sthagen/etiketti",
      "Source-Code": "https://git.sr.ht/~sthagen/etiketti",
      "Test-Coverage": "https://codes.dilettant.life/coverage/etiketti"
    },
    "provides_extra": null,
    "release_url": "https://pypi.org/project/etiketti/2024.1.16/",
    "requires_dist": [
      "PyYAML >=6.0",
      "liitos >=2023.6.17",
      "navigaattori >=2023.6.18",
      "pikepdf >=6.2.8.post1",
      "black ; extra == 'dev'",
      "coverage ; extra == 'dev'",
      "hypothesis ; extra == 'dev'",
      "mypy ; extra == 'dev'",
      "pytest ; extra == 'dev'",
      "pytest-cov ; extra == 'dev'",
      "pytest-flake8 ; extra == 'dev'",
      "ruff ; extra == 'dev'"
    ],
    "requires_python": ">=3.9",
    "summary": "Label (Finnish: etiketti) some files.",
    "version": "2024.1.16",
    "yanked": false,
    "yanked_reason": null
  },
  "last_serial": 21450094,
  "releases": {
    "2023.1.22": [
      {
        "comment_text": "",
        "digests": {
          "blake2b_256": "17621f819204bb18ac528b07d7aff0d0bedf3da9a228372aa9cc14f4b1295478",
          "md5": "23883bd8a086992641808a719967cf83",
          "sha256": "25ad87c1305b0152c939292c7bc89abc1ab378d7577ad15f5c6de3d0b976b234"
        },
        "downloads": -1,
        "filename": "etiketti-2023.1.22-py3-none-any.whl",
        "has_sig": false,
        "md5_digest": "23883bd8a086992641808a719967cf83",
        "packagetype": "bdist_wheel",
        "python_version": "py3",
        "requires_python": ">=3.9",
        "size": 15476,
        "upload_time": "2023-01-22T18:28:17",
        "upload_time_iso_8601": "2023-01-22T18:28:17.817052Z",
        "url": "https://files.pythonhosted.org/packages/17/62/1f819204bb18ac528b07d7aff0d0bedf3da9a228372aa9cc14f4b1295478/etiketti-2023.1.22-py3-none-any.whl",
        "yanked": false,
        "yanked_reason": null
      },
      {
        "comment_text": "",
        "digests": {
          "blake2b_256": "0632e3d4e2511451db50dc8621aa8ce9872b4b9b9184c88227dab1aa13ff95fb",
          "md5": "45eed34002b41c39d0a330536a7edf10",
          "sha256": "1f0f30d5e563ac75bd7cdd50ea9cfc9c85b6e8003108e29ecab3db77d7e4fe13"
        },
        "downloads": -1,
        "filename": "etiketti-2023.1.22.tar.gz",
        "has_sig": false,
        "md5_digest": "45eed34002b41c39d0a330536a7edf10",
        "packagetype": "sdist",
        "python_version": "source",
        "requires_python": ">=3.9",
        "size": 16163,
        "upload_time": "2023-01-22T18:28:19",
        "upload_time_iso_8601": "2023-01-22T18:28:19.991540Z",
        "url": "https://files.pythonhosted.org/packages/06/32/e3d4e2511451db50dc8621aa8ce9872b4b9b9184c88227dab1aa13ff95fb/etiketti-2023.1.22.tar.gz",
        "yanked": false,
        "yanked_reason": null
      }
    ],
    "2023.1.24": [
      {
        "comment_text": "",
        "digests": {
          "blake2b_256": "d4cd1ef7ef232e27845dfa12b6d3e1725fcfef20bd4ca2aca07c594fb7f7a60c",
          "md5": "a15fcc9e997fdfd737acaef2c60fafb2",
          "sha256": "1e03e29080bad9ff6fa003b31859fc5546a964ef2a13d02ce2c13a163cbcb310"
        },
        "downloads": -1,
        "filename": "etiketti-2023.1.24-py3-none-any.whl",
        "has_sig": false,
        "md5_digest": "a15fcc9e997fdfd737acaef2c60fafb2",
        "packagetype": "bdist_wheel",
        "python_version": "py3",
        "requires_python": ">=3.9",
        "size": 15598,
        "upload_time": "2023-01-24T21:59:06",
        "upload_time_iso_8601": "2023-01-24T21:59:06.620744Z",
        "url": "https://files.pythonhosted.org/packages/d4/cd/1ef7ef232e27845dfa12b6d3e1725fcfef20bd4ca2aca07c594fb7f7a60c/etiketti-2023.1.24-py3-none-any.whl",
        "yanked": false,
        "yanked_reason": null
      },
      {
        "comment_text": "",
        "digests": {
          "blake2b_256": "ded63329756e3bbdaaff0dde1007cc1fb1d25f243c9d11e2c9137b541be5d303",
          "md5": "383979b6b7e94a4f6e44bb4a84eee76e",
          "sha256": "d4bdb573b962535ddf17aa90c7f7bbc73a1736a70082a5787957ea1aae246f81"
        },
        "downloads": -1,
        "filename": "etiketti-2023.1.24.tar.gz",
        "has_sig": false,
        "md5_digest": "383979b6b7e94a4f6e44bb4a84eee76e",
        "packagetype": "sdist",
        "python_version": "source",
        "requires_python": ">=3.9",
        "size": 16272,
        "upload_time": "2023-01-24T21:59:08",
        "upload_time_iso_8601": "2023-01-24T21:59:08.156479Z",
        "url": "https://files.pythonhosted.org/packages/de/d6/3329756e3bbdaaff0dde1007cc1fb1d25f243c9d11e2c9137b541be5d303/etiketti-2023.1.24.tar.gz",
        "yanked": false,
        "yanked_reason": null
      }
    ],
    "2023.1.25": [
      {
        "comment_text": "",
        "digests": {
          "blake2b_256": "6d42604e0e92b52eca170659b4755f3b3a87d78ba033af36da34dce85b1974aa",
          "md5": "70648106ecbed2df0ac3fbcf05369a0c",
          "sha256": "1865d98d2d3429761c054536b504623a5d4c4856dda09bb9b577bb9f90b92e04"
        },
        "downloads": -1,
        "filename": "etiketti-2023.1.25-py3-none-any.whl",
        "has_sig": false,
        "md5_digest": "70648106ecbed2df0ac3fbcf05369a0c",
        "packagetype": "bdist_wheel",
        "python_version": "py3",
        "requires_python": ">=3.9",
        "size": 15603,
        "upload_time": "2023-01-24T22:22:58",
        "upload_time_iso_8601": "2023-01-24T22:22:58.250918Z",
        "url": "https://files.pythonhosted.org/packages/6d/42/604e0e92b52eca170659b4755f3b3a87d78ba033af36da34dce85b1974aa/etiketti-2023.1.25-py3-none-any.whl",
        "yanked": false,
        "yanked_reason": null
      },
      {
        "comment_text": "",
        "digests": {
          "blake2b_256": "b389c85f9064d62f1f49a6bc9fa8b7ea7660da69739cc2ddf9405f9282e2a120",
          "md5": "bfd630699387bcad62503014c022d292",
          "sha256": "67553dda35d48cf92d052a9324dda5932ace167fb88c3e7cb7426ac9cfb16dd2"
        },
        "downloads": -1,
        "filename": "etiketti-2023.1.25.tar.gz",
        "has_sig": false,
        "md5_digest": "bfd630699387bcad62503014c022d292",
        "packagetype": "sdist",
        "python_version": "source",
        "requires_python": ">=3.9",
        "size": 16293,
        "upload_time": "2023-01-24T22:23:00",
        "upload_time_iso_8601": "2023-01-24T22:23:00.057867Z",
        "url": "https://files.pythonhosted.org/packages/b3/89/c85f9064d62f1f49a6bc9fa8b7ea7660da69739cc2ddf9405f9282e2a120/etiketti-2023.1.25.tar.gz",
        "yanked": false,
        "yanked_reason": null
      }
    ],
    "2023.11.20": [
      {
        "comment_text": "",
        "digests": {
          "blake2b_256": "9d45b77924dfec806f789cdf68d97932276b7d822076d9484755134f9a9e7012",
          "md5": "df1bc4dcbb6e127a4e6f9880c070b845",
          "sha256": "daefea67471f90b7c2735630b4fbfc113e9b2589b375893f8deab4e6db81d7ed"
        },
        "downloads": -1,
        "filename": "etiketti-2023.11.20-py3-none-any.whl",
        "has_sig": false,
        "md5_digest": "df1bc4dcbb6e127a4e6f9880c070b845",
        "packagetype": "bdist_wheel",
        "python_version": "py3",
        "requires_python": ">=3.9",
        "size": 17570,
        "upload_time": "2023-11-20T17:14:27",
        "upload_time_iso_8601": "2023-11-20T17:14:27.288963Z",
        "url": "https://files.pythonhosted.org/packages/9d/45/b77924dfec806f789cdf68d97932276b7d822076d9484755134f9a9e7012/etiketti-2023.11.20-py3-none-any.whl",
        "yanked": false,
        "yanked_reason": null
      },
      {
        "comment_text": "",
        "digests": {
          "blake2b_256": "6c20719d0eea877e0dc08b1a5f8be7a38aed3172f40e4f647bba9e465c11eb3a",
          "md5": "94d8c4f124f50707fd47c9585983be1d",
          "sha256": "67cb908867cb33e00bedb445962f61443de647c972874ab1fe21555bfa61ad3b"
        },
        "downloads": -1,
        "filename": "etiketti-2023.11.20.tar.gz",
        "has_sig": false,
        "md5_digest": "94d8c4f124f50707fd47c9585983be1d",
        "packagetype": "sdist",
        "python_version": "source",
        "requires_python": ">=3.9",
        "size": 18143,
        "upload_time": "2023-11-20T17:14:28",
        "upload_time_iso_8601": "2023-11-20T17:14:28.372794Z",
        "url": "https://files.pythonhosted.org/packages/6c/20/719d0eea877e0dc08b1a5f8be7a38aed3172f40e4f647bba9e465c11eb3a/etiketti-2023.11.20.tar.gz",
        "yanked": false,
        "yanked_reason": null
      }
    ],
    "2023.11.21": [
      {
        "comment_text": "",
        "digests": {
          "blake2b_256": "b6eaa1cdf2bd493d8236509eb7f27696d3efc7a762facef58ef0b164077d741e",
          "md5": "ac4aeb5c01a506b26bd6d810d44326b1",
          "sha256": "0abd180a0df4d1fd726ce78ffddcce3e57abf13d0b38e6b015c160655a3ce417"
        },
        "downloads": -1,
        "filename": "etiketti-2023.11.21-py3-none-any.whl",
        "has_sig": false,
        "md5_digest": "ac4aeb5c01a506b26bd6d810d44326b1",
        "packagetype": "bdist_wheel",
        "python_version": "py3",
        "requires_python": ">=3.9",
        "size": 17581,
        "upload_time": "2023-11-20T18:17:30",
        "upload_time_iso_8601": "2023-11-20T18:17:30.229775Z",
        "url": "https://files.pythonhosted.org/packages/b6/ea/a1cdf2bd493d8236509eb7f27696d3efc7a762facef58ef0b164077d741e/etiketti-2023.11.21-py3-none-any.whl",
        "yanked": false,
        "yanked_reason": null
      },
      {
        "comment_text": "",
        "digests": {
          "blake2b_256": "be0556061869fba8e6586946f8bf2ae92593ec6129275509ee9c4c885086270f",
          "md5": "754d9c27230573541c469d036d01fb4e",
          "sha256": "f0a95e6bd0ae1281dc24aafcf34f8acdbc2cbd0a885ef2fe1f382ef953ee5c8e"
        },
        "downloads": -1,
        "filename": "etiketti-2023.11.21.tar.gz",
        "has_sig": false,
        "md5_digest": "754d9c27230573541c469d036d01fb4e",
        "packagetype": "sdist",
        "python_version": "source",
        "requires_python": ">=3.9",
        "size": 18173,
        "upload_time": "2023-11-20T18:17:31",
        "upload_time_iso_8601": "2023-11-20T18:17:31.870278Z",
        "url": "https://files.pythonhosted.org/packages/be/05/56061869fba8e6586946f8bf2ae92593ec6129275509ee9c4c885086270f/etiketti-2023.11.21.tar.gz",
        "yanked": false,
        "yanked_reason": null
      }
    ],
    "2023.11.22": [
      {
        "comment_text": "",
        "digests": {
          "blake2b_256": "669199f86522380a7a9cf7951d5eaae2c5d603b48a10046f21711a161d586e0c",
          "md5": "8e084963d70b766e645f894a27fd9ce8",
          "sha256": "6b61a24026d7920b0a7123813623892c6db59ea71231156e0d98a11765e4c8bc"
        },
        "downloads": -1,
        "filename": "etiketti-2023.11.22-py3-none-any.whl",
        "has_sig": false,
        "md5_digest": "8e084963d70b766e645f894a27fd9ce8",
        "packagetype": "bdist_wheel",
        "python_version": "py3",
        "requires_python": ">=3.9",
        "size": 17581,
        "upload_time": "2023-11-20T18:39:42",
        "upload_time_iso_8601": "2023-11-20T18:39:42.098192Z",
        "url": "https://files.pythonhosted.org/packages/66/91/99f86522380a7a9cf7951d5eaae2c5d603b48a10046f21711a161d586e0c/etiketti-2023.11.22-py3-none-any.whl",
        "yanked": false,
        "yanked_reason": null
      },
      {
        "comment_text": "",
        "digests": {
          "blake2b_256": "d35653a32d1880b93fe101b08d09a32be09b15951ee48d1869716ddc3d23a2a3",
          "md5": "dd43e93a31101409e9c08ac9f230b78f",
          "sha256": "bd9ebcac023e4804c77b8985dbbc5b504564fd4752d378ab580dcb4d5d3454d8"
        },
        "downloads": -1,
        "filename": "etiketti-2023.11.22.tar.gz",
        "has_sig": false,
        "md5_digest": "dd43e93a31101409e9c08ac9f230b78f",
        "packagetype": "sdist",
        "python_version": "source",
        "requires_python": ">=3.9",
        "size": 18159,
        "upload_time": "2023-11-20T18:39:43",
        "upload_time_iso_8601": "2023-11-20T18:39:43.658138Z",
        "url": "https://files.pythonhosted.org/packages/d3/56/53a32d1880b93fe101b08d09a32be09b15951ee48d1869716ddc3d23a2a3/etiketti-2023.11.22.tar.gz",
        "yanked": false,
        "yanked_reason": null
      }
    ],
    "2023.11.23": [
      {
        "comment_text": "",
        "digests": {
          "blake2b_256": "be82de9bc930a08d7e5f0516bbbccf9b82b256c812938be779f345342a3f2bea",
          "md5": "61b82bcda728e1dc885d008be3b200fb",
          "sha256": "71c282c6e87dcb666c63b2b9ce5d044087f6bee9668db0d0b15655da7ad3ec6a"
        },
        "downloads": -1,
        "filename": "etiketti-2023.11.23-py3-none-any.whl",
        "has_sig": false,
        "md5_digest": "61b82bcda728e1dc885d008be3b200fb",
        "packagetype": "bdist_wheel",
        "python_version": "py3",
        "requires_python": ">=3.9",
        "size": 17665,
        "upload_time": "2023-11-21T18:11:03",
        "upload_time_iso_8601": "2023-11-21T18:11:03.627210Z",
        "url": "https://files.pythonhosted.org/packages/be/82/de9bc930a08d7e5f0516bbbccf9b82b256c812938be779f345342a3f2bea/etiketti-2023.11.23-py3-none-any.whl",
        "yanked": false,
        "yanked_reason": null
      },
      {
        "comment_text": "",
        "digests": {
          "blake2b_256": "c4390efaea9d362a976f04ebcce0617573c76d2860722022655593d863f65683",
          "md5": "959f7495772ca789c9c38f2d9caca845",
          "sha256": "c893ebec53fd3593e4c31778758ef579d0b750046933ad0ccf71733302e13a9f"
        },
        "downloads": -1,
        "filename": "etiketti-2023.11.23.tar.gz",
        "has_sig": false,
        "md5_digest": "959f7495772ca789c9c38f2d9caca845",
        "packagetype": "sdist",
        "python_version": "source",
        "requires_python": ">=3.9",
        "size": 18287,
        "upload_time": "2023-11-21T18:11:08",
        "upload_time_iso_8601": "2023-11-21T18:11:08.405523Z",
        "url": "https://files.pythonhosted.org/packages/c4/39/0efaea9d362a976f04ebcce0617573c76d2860722022655593d863f65683/etiketti-2023.11.23.tar.gz",
        "yanked": false,
        "yanked_reason": null
      }
    ],
    "2023.2.13": [
      {
        "comment_text": "",
        "digests": {
          "blake2b_256": "1bf167ce81df2a6c9ebc8288eb02daa0e268dfb5027722e3e9c7d9ae96a8dcda",
          "md5": "d169e1f39ea672c6d7ef853850644fd3",
          "sha256": "2112a1815b7a49553266eb968ba3b25c5eef670f5e86cb14d7336bd402c845a5"
        },
        "downloads": -1,
        "filename": "etiketti-2023.2.13-py3-none-any.whl",
        "has_sig": false,
        "md5_digest": "d169e1f39ea672c6d7ef853850644fd3",
        "packagetype": "bdist_wheel",
        "python_version": "py3",
        "requires_python": ">=3.9",
        "size": 17160,
        "upload_time": "2023-02-13T21:10:47",
        "upload_time_iso_8601": "2023-02-13T21:10:47.835953Z",
        "url": "https://files.pythonhosted.org/packages/1b/f1/67ce81df2a6c9ebc8288eb02daa0e268dfb5027722e3e9c7d9ae96a8dcda/etiketti-2023.2.13-py3-none-any.whl",
        "yanked": false,
        "yanked_reason": null
      },
      {
        "comment_text": "",
        "digests": {
          "blake2b_256": "d15c46cb13cb3cea90aa9920ec81d98192692047e93872950a7034b56d7d1dfe",
          "md5": "834da4b4654947236f223df977cba67f",
          "sha256": "7a9343e49ec0ca8463f1d156c134a1251ccb66763087a42f909600b86a7f82c9"
        },
        "downloads": -1,
        "filename": "etiketti-2023.2.13.tar.gz",
        "has_sig": false,
        "md5_digest": "834da4b4654947236f223df977cba67f",
        "packagetype": "sdist",
        "python_version": "source",
        "requires_python": ">=3.9",
        "size": 17036,
        "upload_time": "2023-02-13T21:10:49",
        "upload_time_iso_8601": "2023-02-13T21:10:49.405014Z",
        "url": "https://files.pythonhosted.org/packages/d1/5c/46cb13cb3cea90aa9920ec81d98192692047e93872950a7034b56d7d1dfe/etiketti-2023.2.13.tar.gz",
        "yanked": false,
        "yanked_reason": null
      }
    ],
    "2023.6.18": [
      {
        "comment_text": "",
        "digests": {
          "blake2b_256": "e0b92e08252140add88689d68c9c0378de5490cb9896b5e81c8caf5006d8cdcc",
          "md5": "fe3f4e8148bb1e42cad09b51d5f7607c",
          "sha256": "8367478c1bb335234513fc8de30fa9485330b47511d7d61caddedac00098635c"
        },
        "downloads": -1,
        "filename": "etiketti-2023.6.18-py3-none-any.whl",
        "has_sig": false,
        "md5_digest": "fe3f4e8148bb1e42cad09b51d5f7607c",
        "packagetype": "bdist_wheel",
        "python_version": "py3",
        "requires_python": ">=3.9",
        "size": 17382,
        "upload_time": "2023-06-18T12:41:40",
        "upload_time_iso_8601": "2023-06-18T12:41:40.730835Z",
        "url": "https://files.pythonhosted.org/packages/e0/b9/2e08252140add88689d68c9c0378de5490cb9896b5e81c8caf5006d8cdcc/etiketti-2023.6.18-py3-none-any.whl",
        "yanked": false,
        "yanked_reason": null
      },
      {
        "comment_text": "",
        "digests": {
          "blake2b_256": "e65b812e269df5036ab0550a1729ed2585651905118b16a7d5f4dcb8e7377077",
          "md5": "2be235c40c1234c8c263c04e3cdbd471",
          "sha256": "31e408d40044795b375011dc187a04cbc8469b15644109e4f2f984e5bbd42422"
        },
        "downloads": -1,
        "filename": "etiketti-2023.6.18.tar.gz",
        "has_sig": false,
        "md5_digest": "2be235c40c1234c8c263c04e3cdbd471",
        "packagetype": "sdist",
        "python_version": "source",
        "requires_python": ">=3.9",
        "size": 17587,
        "upload_time": "2023-06-18T12:41:42",
        "upload_time_iso_8601": "2023-06-18T12:41:42.135522Z",
        "url": "https://files.pythonhosted.org/packages/e6/5b/812e269df5036ab0550a1729ed2585651905118b16a7d5f4dcb8e7377077/etiketti-2023.6.18.tar.gz",
        "yanked": false,
        "yanked_reason": null
      }
    ],
    "2024.1.16": [
      {
        "comment_text": "",
        "digests": {
          "blake2b_256": "4425902062f892effc5d2c8d468d7e02a5f3d747bc0686adcb896cace89f27fd",
          "md5": "d951df7a80ae116509ec47ceb083681d",
          "sha256": "119d277f06ae36e6b4ca04cd2a71dea823c08f37cd4cda94f3b5b9bbf62b34c9"
        },
        "downloads": -1,
        "filename": "etiketti-2024.1.16-py3-none-any.whl",
        "has_sig": false,
        "md5_digest": "d951df7a80ae116509ec47ceb083681d",
        "packagetype": "bdist_wheel",
        "python_version": "py3",
        "requires_python": ">=3.9",
        "size": 18140,
        "upload_time": "2024-01-16T17:28:45",
        "upload_time_iso_8601": "2024-01-16T17:28:45.919262Z",
        "url": "https://files.pythonhosted.org/packages/44/25/902062f892effc5d2c8d468d7e02a5f3d747bc0686adcb896cace89f27fd/etiketti-2024.1.16-py3-none-any.whl",
        "yanked": false,
        "yanked_reason": null
      },
      {
        "comment_text": "",
        "digests": {
          "blake2b_256": "1eff3d519cf088b0c2253c1a19d94c6932e61590688e536cf5c8eef2a50acd18",
          "md5": "198ad4ffd440f24ecaa1b9a51e355f40",
          "sha256": "50680b6e91c3c6953af1959421b6e8a4ca79f73291bfb4358feefa82fff38eb3"
        },
        "downloads": -1,
        "filename": "etiketti-2024.1.16.tar.gz",
        "has_sig": false,
        "md5_digest": "198ad4ffd440f24ecaa1b9a51e355f40",
        "packagetype": "sdist",
        "python_version": "source",
        "requires_python": ">=3.9",
        "size": 18709,
        "upload_time": "2024-01-16T17:28:47",
        "upload_time_iso_8601": "2024-01-16T17:28:47.189059Z",
        "url": "https://files.pythonhosted.org/packages/1e/ff/3d519cf088b0c2253c1a19d94c6932e61590688e536cf5c8eef2a50acd18/etiketti-2024.1.16.tar.gz",
        "yanked": false,
        "yanked_reason": null
      }
    ]
  },
  "urls": [
    {
      "comment_text": "",
      "digests": {
        "blake2b_256": "4425902062f892effc5d2c8d468d7e02a5f3d747bc0686adcb896cace89f27fd",
        "md5": "d951df7a80ae116509ec47ceb083681d",
        "sha256": "119d277f06ae36e6b4ca04cd2a71dea823c08f37cd4cda94f3b5b9bbf62b34c9"
      },
      "downloads": -1,
      "filename": "etiketti-2024.1.16-py3-none-any.whl",
      "has_sig": false,
      "md5_digest": "d951df7a80ae116509ec47ceb083681d",
      "packagetype": "bdist_wheel",
      "python_version": "py3",
      "requires_python": ">=3.9",
      "size": 18140,
      "upload_time": "2024-01-16T17:28:45",
      "upload_time_iso_8601": "2024-01-16T17:28:45.919262Z",
      "url": "https://files.pythonhosted.org/packages/44/25/902062f892effc5d2c8d468d7e02a5f3d747bc0686adcb896cace89f27fd/etiketti-2024.1.16-py3-none-any.whl",
      "yanked": false,
      "yanked_reason": null
    },
    {
      "comment_text": "",
      "digests": {
        "blake2b_256": "1eff3d519cf088b0c2253c1a19d94c6932e61590688e536cf5c8eef2a50acd18",
        "md5": "198ad4ffd440f24ecaa1b9a51e355f40",
        "sha256": "50680b6e91c3c6953af1959421b6e8a4ca79f73291bfb4358feefa82fff38eb3"
      },
      "downloads": -1,
      "filename": "etiketti-2024.1.16.tar.gz",
      "has_sig": false,
      "md5_digest": "198ad4ffd440f24ecaa1b9a51e355f40",
      "packagetype": "sdist",
      "python_version": "source",
      "requires_python": ">=3.9",
      "size": 18709,
      "upload_time": "2024-01-16T17:28:47",
      "upload_time_iso_8601": "2024-01-16T17:28:47.189059Z",
      "url": "https://files.pythonhosted.org/packages/1e/ff/3d519cf088b0c2253c1a19d94c6932e61590688e536cf5c8eef2a50acd18/etiketti-2024.1.16.tar.gz",
      "yanked": false,
      "yanked_reason": null
    }
  ],
  "vulnerabilities": []
}